[
  {
    "id": 1,
    "kilometrage": "Moins de 200km",
    "prix": 0
  },
  {
    "id": 2,
    "kilometrage": "De 200km à 600km",
    "prix": 5000
  },
  {
    "id": 3,
    "kilometrage": "Plus de 600km",
    "prix": 10000
  }
]