{
    "id": 1,
    "nom": "Maison de vacances bord de mer",
    "adresse": "rue de l'Eau Blanche 29200 Brest",
    "remise": 10,
    "distance": {
        "id": 2,
        "kilometrage": "De 200km à 600km",
        "prix": 5000
    },
    "cctp": {
        "id": 1,
        "nom": "CCTP dalle béton",
        "fichier": "fiojvlkv8468464.pdf"
    },
    "products": 
        [
            {
            "id": 1,
            "nom": "Aile Nord",
            "blocs": 
                [
                    {
                        "id": 1,
                        "nom": "Mur Extérieur",
                        "prix_assemblage": 350,
                        "quantite": 6,
                        "dimension": {
                            "unite": "m"
                            },
                        "composants": [
                            {
                                "id": 1,
                                "nom": "ciment",
                                "prix": 0.16,
                                "quantite": 100,
                                "dimension": {
                                    "unite": "kg"
                                }
                            },
                            {
                                "id": 2,
                                "nom": "parpaing",
                                "prix": 0.80,
                                "quantite": 300,
                                "dimension": {
                                    "unite": "pièce"
                                }
                            }
                        ]
                    },
                    {
                        "id": 2,
                        "nom": "Mur Intérieur",
                        "prix_assemblage": 250,
                        "quantite": 8,
                        "dimension": {
                            "unite": "m"
                            },
                        "composants": [
                            {
                                "id": 3,
                                "nom": "placoplatre BA13",
                                "prix": 2.10,
                                "quantite": 200,
                                "dimension": {
                                    "unite": "m^2"
                                }
                            },
                            {
                                "id": 4,
                                "nom": "bande à joint",
                                "prix": 0.03,
                                "quantite": 100,
                                "dimension": {
                                    "unite": "m"
                                }
                            }
                        ]
                    },
                    {
                        "id": 3,
                        "nom": "Plancher",
                        "prix_assemblage": 450,
                        "quantite": 50,
                        "dimension": {
                            "unite": "m²"
                            },
                        "composants": [
                            {
                                "id": 1,
                                "nom": "stratifié SENS BY QUICK-STEP chêne niagara",
                                "prix": 29.95,
                                "quantite": 100,
                                "dimension": {
                                    "unite": "m^2"
                                }
                            }
                        ]
                    },
                    {
                        "id": 4,
                        "nom": "Chapelle toit",
                        "prix_assemblage": 1050,
                        "quantite": 22,
                        "dimension": {
                            "unite": "m²"
                            },
                        "composants": [
                            {
                                "id": 1,
                                "nom": "Ardoise 32x22cm ép.3.5mm 3ème choix La Bana CE",
                                "prix": 0.60,
                                "quantite": 200,
                                "dimension": {
                                    "unite": "pièce"
                                }
                            },
                            {
                                "id": 1,
                                "nom": " Crochet agrafe pour ardoise inox 17%, L.90 mm 700 pièces",
                                "prix": 38.01,
                                "quantite": 2,
                                "dimension": {
                                    "unite": "lot"
                                }
                            }
                        ]
                    }
                ],
            "gamme":
            {
                "id": 1,
                "nom": "Gamme Océan"
            }
        },
        {
            "id": 2,
            "nom": "Corps principal",
            "blocs": 
                [
                    {
                        "id": 1,
                        "nom": "Mur Extérieur",
                        "prix_assemblage": 350,
                        "quantite": 6,
                        "dimension": {
                            "unite": "m"
                            },
                        "composants": [
                            {
                                "id": 1,
                                "nom": "ciment",
                                "prix": 0.16,
                                "quantite": 100,
                                "dimension": {
                                    "unite": "kg"
                                }
                            },
                            {
                                "id": 1,
                                "nom": "parpaing",
                                "prix": 0.80,
                                "quantite": 300,
                                "dimension": {
                                    "unite": "pièce"
                                }
                            }
                        ]
                    },
                    {
                        "id": 2,
                        "nom": "Mur Intérieur",
                        "prix_assemblage": 250,
                        "quantite": 8,
                        "dimension": {
                            "unite": "m"
                            },
                        "composants": [
                            {
                                "id": 1,
                                "nom": "placoplatre BA13",
                                "prix": 2.10,
                                "quantite": 200,
                                "dimension": {
                                    "unite": "m^2"
                                }
                            },
                            {
                                "id": 1,
                                "nom": "bande à joint",
                                "prix": 0.03,
                                "quantite": 100,
                                "dimension": {
                                    "unite": "m"
                                }
                            }
                        ]
                    },
                    {
                        "id": 3,
                        "nom": "Plancher",
                        "prix_assemblage": 450,
                        "quantite": 50,
                        "dimension": {
                            "unite": "m²"
                            },
                        "composants": [
                            {
                                "id": 1,
                                "nom": "stratifié SENS BY QUICK-STEP chêne niagara",
                                "prix": 29.95,
                                "quantite": 100,
                                "dimension": {
                                    "unite": "m^2"
                                }
                            }
                        ]
                    },
                    {
                        "id": 4,
                        "nom": "Chapelle toit",
                        "prix_assemblage": 1050,
                        "quantite": 22,
                        "dimension": {
                            "unite": "m²"
                            },
                        "composants": [
                            {
                                "id": 1,
                                "nom": "Ardoise 32x22cm ép.3.5mm 3ème choix La Bana CE",
                                "prix": 0.60,
                                "quantite": 200,
                                "dimension": {
                                    "unite": "pièce"
                                }
                            },
                            {
                                "id": 1,
                                "nom": " Crochet agrafe pour ardoise inox 17%, L.90 mm 700 pièces",
                                "prix": 38.01,
                                "quantite": 2,
                                "dimension": {
                                    "unite": "lot"
                                }
                            }
                        ]
                    }
                ],
            "gamme":
            {
                "id": 1,
                "nom": "Gamme Océan"
            }
        }
    ]    
}
